%YAML 1.1
%TAG !u! tag:unity3d.com,2011:
--- !u!1045 &1
EditorBuildSettings:
  m_ObjectHideFlags: 0
  serializedVersion: 2
  m_Scenes:
  - enabled: 1
    path: Assets/FacePaintingPart/Makeup/PaintingScene.unity
    guid: 97133e77c8f8bbb42aa6f7846d25973c
